Place,Name,Team,BirthDate,BodyweightKg,Squat1Kg,Squat2Kg,Squat3Kg,Best3SquatKg,Bench1Kg,Bench2Kg,Bench3Kg,Best3BenchKg,Deadlift1Kg,Deadlift2Kg,Deadlift3Kg,Best3DeadliftKg,TotalKg,Event,Equipment,Division,Sex,WeightClassKg
1,Tamara Meyer,FSV Sarstedt,1982-09-24,66.5,130,140,145,145,67.5,70,-75,70,140,150,155,155,370,SBD,Raw,Open,F,
2,Irina Golombek,,1979-07-23,70,100,105,110,110,75,-80,-80,75,135,142.5,147.5,147.5,332.5,SBD,Raw,Open,F,
3,Constanze Depp,,1992-01-27,66.4,87.5,92.5,-95,92.5,-55,55,60,60,140,150,155,155,307.5,SBD,Raw,Open,F,
4,Stephanie Kroth,,1973-08-02,79.6,100,105,-115,105,50,55,-62.5,55,100,110,120,120,280,SBD,Raw,Open,F,
1,Sascha Stendebach,KSV Mainz 08,1991-06-11,85.5,200,-210,-210,200,150,157.5,162.5,162.5,150,260,270,270,632.5,SBD,Raw,Junioren,M,90
2,Pepe Silvano,AV Groß Zimmern,1989-09-09,83.4,170,175,180,180,145,150,-155,150,215,235,250,250,580,SBD,Raw,Junioren,M,90
3,Moritz Kröner,AC Siegfried Darmstadt,1990-01-30,89.9,190,200,207.5,207.5,152.5,157.5,-160,157.5,215,-230,-230,215,580,SBD,Raw,Junioren,M,90
4,Tim Leitow,FSV Sarstedt,1994-01-26,82.3,180,-190,-190,180,130,140,-147.5,140,200,225,-240,225,545,SBD,Raw,Junioren,M,90
5,Matthias Skuballa,SV Fellbach,,87.4,195,205,-215,205,127.5,-135,-135,127.5,-230,-230,230,230,562.5,SBD,Raw,Junioren,M,90
6,Eren Kayadan,AV Groß-Zimmern,1996-05-03,68.5,130,140,145,145,107.5,112.5,117.5,117.5,185,190,,190,452.5,SBD,Raw,Junioren,M,90
7,Thomas Lautenschläger,,,80.3,145,155,-165,155,115,-120,120,120,210,220,-230,220,495,SBD,Raw,Junioren,M,90
8,Marius Schneider,Aktiv Sport Trier,1996-01-24,74.2,140,150,160,160,90,100,-110,100,180,190,-200,190,450,SBD,Raw,Junioren,M,90
9,Benjamin Forst,AV Groß-Zimmern,1990-08-18,85,145,155,160,160,112.5,117.5,122.5,122.5,180,192.5,200,200,482.5,SBD,Raw,Junioren,M,90
10,Deniz Kayadan,AV Groß-Zimmern,1989-03-04,75.4,125,140,-150,140,100,110,-112.5,110,170,185,192.5,192.5,442.5,SBD,Raw,Junioren,M,90
11,David Wolf,,1992-04-12,83.5,140,150,160,160,100,105,110,110,160,170,180,180,450,SBD,Raw,Junioren,M,90
12,Robin Dietrich,AV Groß-Zimmern,1995-02-22,88.4,155,165,170,170,87.5,92.5,-100,92.5,175,187.5,192.5,192.5,455,SBD,Raw,Junioren,M,90
13,Simon Wetzel,,,86.9,125,135,145,145,92.5,-100,102.5,102.5,170,180,190,190,437.5,SBD,Raw,Junioren,M,90
14,Michele Di Girolano,AV Groß-Zimmern,1990-10-30,79.8,100,110,-130,110,90,97.5,-102.5,97.5,165,175,185,185,392.5,SBD,Raw,Junioren,M,90
15,Lukas Schneider,Aktiv Sport Trier,1997-07-16,58,65,72.5,80,80,50,55,-57.5,55,90,100,-105,100,235,SBD,Raw,Junioren,M,90
1,Marvin Rippe,AC Siegfried Darmstadt,1990-10-05,103.6,200,212.5,-220,212.5,140,147.5,-152.5,147.5,265,275,-300,275,635,SBD,Raw,Junioren,M,90+
2,Dennis Pusikow,Fit + Fun Gotha,1992-07-14,101,190,200,210,210,140,150,152.5,152.5,-220,220,230,230,592.5,SBD,Raw,Junioren,M,90+
3,Markus Stolorz,ASC Zeilsheim,1992-05-02,92.4,157.5,165,-170,165,117.5,-122.5,-122.5,117.5,187.5,202.5,-207.5,202.5,485,SBD,Raw,Junioren,M,90+
4,Nico Jones,KSV Mainz 08,1994-03-29,103,120,135,150,150,110,117.5,120,120,140,170,200,200,470,SBD,Raw,Junioren,M,90+
5,Sebastian Koch,AC Siegfried Darmstadt,1989-04-14,106.5,130,140,150,150,100,110,,110,130,140,155,155,415,SBD,Raw,Junioren,M,90+
1,Konrad Burghardt,AC Marburg,1974-04-19,89.6,235,245,255,255,175,190,200,200,240,260,-280,260,715,SBD,Raw,Open,M,100
2,Cesco Virzi,Club der Bembel-Men,1983-07-25,86.7,210,230,240,240,150,165,172.5,172.5,220,250,270,270,682.5,SBD,Raw,Open,M,100
3,Jeffrey Podszuweit,Leipzig,1977-07-12,83.4,180,200,220,220,180,-190,-190,180,180,220,240,240,640,SBD,Raw,Open,M,100
4,Peter Schorr,,1978-04-13,75.5,190,200,205,205,117.5,122.5,-125,122.5,230,242.5,-252.5,242.5,570,SBD,Raw,Open,M,100
5,Fabian Gerritzen,Elmshorn,1987-08-18,87.9,180,190,-200,190,110,115,125,125,240,260,285,285,600,SBD,Raw,Open,M,100
6,Peter Knuth,KSV Mannheim,1984-06-13,88.6,180,190,195,195,155,160,,160,230,-240,240,240,595,SBD,Raw,Open,M,100
7,Axel Hüter,AC Siegfried Darmstadt,1971-05-20,96.2,190,210,215,215,150,160,162.5,162.5,195,222.5,232.5,232.5,610,SBD,Raw,Open,M,100
8,Matthias Siegle,SV Fellbach,1963-07-11,82.9,182.5,195,-200,195,127.5,-132.5,-135,127.5,210,227.5,-235,227.5,550,SBD,Raw,Open,M,100
9,Myrco Griesch,Cross Power Rodgau,1980-08-14,68.6,140,150,160,160,115,120,-125,120,175,185,200,200,480,SBD,Raw,Open,M,100
10,Sebastian Baier,KSV Mannheim,1987-04-09,84.2,165,172.5,177.5,177.5,145,150,,150,205,215,220,220,547.5,SBD,Raw,Open,M,100
11,Johannes Denhard,,1984-12-22,91.6,177.5,185,190,190,125,132.5,-137.5,132.5,215,232.5,-235,232.5,555,SBD,Raw,Open,M,100
12,Christian Burth,,1988-09-30,74.3,150,157.5,165,165,95,102.5,107.5,107.5,195,205,215,215,487.5,SBD,Raw,Open,M,100
13,Christopher Tropea,AV Groß-Zimmern,,85.7,145,155,165,165,130,135,-140,135,180,200,215,215,515,SBD,Raw,Open,M,100
14,Jaari Kristian Ott,,1993-05-23,91,150,165,175,175,125,135,-150,135,200,210,220,220,530,SBD,Raw,Open,M,100
15,Niklas Einheuser,,1992-05-26,95.2,175,185,195,195,140,145,-147.5,145,195,-210,,195,535,SBD,Raw,Open,M,100
16,Zaid Damien,,1988-05-20,91.3,170,180,,180,95,105,-110,105,220,-230,230,230,515,SBD,Raw,Open,M,100
17,Benjamin Spahn,Cross Power Rodgau,1984-07-29,94.8,160,170,180,180,120,130,-137.5,130,175,185,200,200,510,SBD,Raw,Open,M,100
18,Alwin Schneider,Aktiv Sport Trier,1960-07-23,91.1,145,160,170,170,120,130,140,140,165,180,185,185,495,SBD,Raw,Open,M,100
19,Leo Läßle,Aktiv Sport Trier,1988-01-26,97.3,160,170,180,180,100,105,-110,105,200,210,220,220,505,SBD,Raw,Open,M,100
20,Peter Müller,Gallier,1975-06-26,97.9,170,180,190,190,95,100,-105,100,180,195,-205,195,485,SBD,Raw,Open,M,100
21,Peter Abel,Gallier,1985-01-13,77.5,-130,130,-145,130,90,100,-110,100,190,-210,-210,190,420,SBD,Raw,Open,M,100
22,Konrad Dedry,Leverkusen,1993-06-10,96.1,170,-180,-180,170,100,107.5,110,110,160,175,185,185,465,SBD,Raw,Open,M,100
23,Oliver Sowa,AC 82 Schweinfurt,1984-02-10,89.2,140,150,-160,150,110,115,120,120,160,170,175,175,445,SBD,Raw,Open,M,100
24,Hakki Bozat,Powerlifting Esslingen,1960-10-20,70.3,100,-115,115,115,80,90,-100,90,135,145,160,160,365,SBD,Raw,Open,M,100
25,David Wegner,Koethener SV 09,1978-06-27,99.4,130,140,145,145,105,110,115,115,160,170,185,185,445,SBD,Raw,Open,M,100
26,Oliver Eisenbarth,,1980-01-22,89.3,125,135,150,150,85,100,110,110,145,160,-180,160,420,SBD,Raw,Open,M,100
27,Ökcu Mazlum,AC 82 Schweinfurt,1990-08-17,85.7,-120,120,-130,120,90,95,-100,95,160,170,185,185,400,SBD,Raw,Open,M,100
28,Foyil Dwight,,1971-01-31,95.2,120,130,140,140,90,100,105,105,150,160,170,170,415,SBD,Raw,Open,M,100
29,Leonard Roth,,1994-08-26,75,105,110,115,115,80,-85,-85,80,125,135,150,150,345,SBD,Raw,Open,M,100
30,Manfred Werra,AV Groß-Zimmern,1940-04-22,95.8,130,140,-150,140,75,77.5,-80,77.5,160,165,-170,165,382.5,SBD,Raw,Open,M,100
31,Maximilian Schulz-Herberg,,1993-02-25,94.1,110,120,130,130,85,95,100,100,120,130,145,145,375,SBD,Raw,Open,M,100
32,Yannick Schwarz,Gallier,1998-05-10,64.5,75,85,95,95,55,-60,-60,55,110,125,135,135,285,SBD,Raw,Open,M,100
DQ,Sven Landua,Outback Gym Mainz,,64.9,100,135,-142.5,135,-70,75,85,85,-110,-110,-110,,,SBD,Raw,Open,M,100
1,Marc Graser,Powerlifting Esslingen,1974-08-13,104.4,230,250,260,260,160,170,180,180,270,300,-310,300,740,SBD,Raw,Open,M,100+
2,Uwe Frey,Maxx Stuttgart,1969-03-14,149.1,-290,290,300,300,200,207.5,212.5,212.5,240,260,270,270,782.5,SBD,Raw,Open,M,100+
3,Gregor Loosen,KSV Mannheim,1986-06-06,110.1,235,245,250,250,155,165,,165,270,295,302.5,302.5,717.5,SBD,Raw,Open,M,100+
4,Philipp Gramlich,AV Groß-Zimmern,1987-10-06,125.3,270,-282.5,-282.5,270,160,165,167.5,167.5,272.5,285,302.5,302.5,740,SBD,Raw,Open,M,100+
5,Andreas Koch,KSV Mainz08,1964-08-22,141,210,250,275,275,175,190,-200,190,220,260,275,275,740,SBD,Raw,Open,M,100+
6,Hans Müller,AC Siegfried Darmstadt,1979-06-22,111,240,260,-270,260,150,-160,,150,270,-290,,270,680,SBD,Raw,Open,M,100+
7,Volker Dell,KSV Mainz08,1957-03-07,101,200,230,245,245,120,130,140,140,200,230,250,250,635,SBD,Raw,Open,M,100+
8,Benjamin Wennmacher,,1988-04-19,110.9,205,215,,215,170,175,-185,175,260,,,260,650,SBD,Raw,Open,M,100+
9,Tino Czeranowski,Powerlifting Esslingen,1971-01-29,130.6,270,300,,300,25,,,25,270,290,300,300,625,SBD,Raw,Open,M,100+
10,Max Hegen,,1978-02-04,111.9,190,200,205,205,130,140,-145,140,200,210,220,220,565,SBD,Raw,Open,M,100+
11,Roland Kurtz,Leverkusen,1968-03-20,131.1,175,185,190,190,150,-160,160,160,215,225,232.5,232.5,582.5,SBD,Raw,Open,M,100+
12,Benjamin Hofmann,AC Marburg,1985-06-02,118.1,-180,180,195,195,120,127.5,135,135,200,220,230,230,560,SBD,Raw,Open,M,100+
13,Jacob Weinhold,Hamburg,1994-03-08,125.4,-197.5,197.5,210,210,105,112.5,-120,112.5,200,215,230,230,552.5,SBD,Raw,Open,M,100+
14,Markus Baumann,,,122.4,90,100,115,115,65,-75,75,75,110,130,150,150,340,SBD,Raw,Open,M,100+
1,Thorsten Hinz,Outback Gym Mainz,,122.2,,,,,210,220,232.5,232.5,,,,,232.5,B,Raw,Open,M,
2,Christian Raidel,Salzburg,1982-03-21,119.6,,,,,230,-242.5,-242.5,230,,,,,230,B,Raw,Open,M,
3,Marco Schwarz,AV Groß Zimmern,1971-12-13,78.4,,,,,160,167.5,-182.5,167.5,,,,,167.5,B,Raw,Open,M,
4,Fatih Zeybek,FCL Rhein-Main Rüsselsheim e.V.,1971-08-24,107.4,,,,,165,175,180,180,,,,,180,B,Raw,Open,M,
5,Lolita Maurer,,1959-05-26,64.5,,,,,95,97.5,100,100,,,,,100,B,Raw,Open,F,
6,Michael Nichtern,KSV Mainz08,1983-10-08,109,,,,,170,-180,-180,170,,,,,170,B,Raw,Open,M,
7,Thomas Elfner,Tempelgym,1970-09-05,98.6,,,,,160,-167.5,-167.5,160,,,,,160,B,Raw,Open,M,
8,Ricky Bauroth,Leipzig,1977-09-11,83.6,,,,,130,140,-145,140,,,,,140,B,Raw,Open,M,
9,Alex Michel,Tempelgym,1984-07-31,83.3,,,,,125,130,-137.5,130,,,,,130,B,Raw,Open,M,
10,Dominic Schreiber,AV Groß Zimmern,,82.4,,,,,120,-130,-130,120,,,,,120,B,Raw,Open,M,
11,Stefan Fehrer,Tempelgym,1978-10-01,91.5,,,,,120,125,-132.5,125,,,,,125,B,Raw,Open,M,
12,Florian Förster,Tempelgym,1988-05-14,102.1,,,,,115,-120,120,120,,,,,120,B,Raw,Open,M,
13,Andrej Salzmann,Tempelgym,1989-04-01,76.8,,,,,90,95,100,100,,,,,100,B,Raw,Open,M,
14,Jonas Ress,FCL Rhein-Main Rüsselsheim e.V.,,79.4,,,,,-100,-100,100,100,,,,,100,B,Raw,Open,M,
15,Gabriel Bergmaier,Göttingen,1985-06-23,98.1,,,,,95,105,107.5,107.5,,,,,107.5,B,Raw,Open,M,
16,Andreas Theumer,KSV Mainz 08,1958-03-05,82,,,,,77.5,80,87.5,87.5,,,,,87.5,B,Raw,Open,M,
17,Leon Krämer,,2000-08-10,37.8,,,,,30,35,37.5,37.5,,,,,37.5,B,Raw,Open,M,
18,Norbert Procopec,FCL Rhein-Main Rüsselsheim e.V.,,82.8,,,,,35,40,45,45,,,,,45,B,Raw,Open,M,
DQ,Nasir Ludin,AV Groß Zimmern,1989-08-04,71,,,,,-120,,,,,,,,,B,Raw,Open,M,
