Place,Name,Sex,BirthDate,Age,Equipment,Division,BodyweightKg,WeightClassKg,Bench1Kg,Bench2Kg,Bench3Kg,Bench4Kg,Best3BenchKg,Deadlift1Kg,Deadlift2Kg,Deadlift3Kg,Deadlift4Kg,Best3DeadliftKg,TotalKg,Event
1,Mioara Mara Vizinteanu,F,1977-04-25,44,Raw,F_MR_1_AIPO,79.9,82.5,50,57.5,-60,,57.5,,,,,,57.5,B
1,Cheryl O'Neill,F,1980-01-02,42,Raw,F_MR_1_AIPO,84.4,90,60,65,-67.5,,65,,,,,,65,B
1,Paulina Coleman,F,1977-07-05,44,Raw,F_MR_1_AIPO,90.2,100,80,85,-87.5,,85,,,,,,85,B
1,Aideen Clarke,F,1978-07-15,43,Raw,F_MR_1_AIPO,125.35,110+,57.5,62.5,-67.5,,62.5,,,,,,62.5,B
1,Poipin Douglas,F,1975-12-28,46,Raw,F_MR_2_AIPO,63.65,67.5,50,52.5,55,,55,,,,,,55,B
1,Margaret Fahy,F,1970-09-04,51,Raw,F_MR_3_AIPO,64.4,67.5,40,47.5,50,,50,,,,,,50,B
1,Mary Fusco,F,1957-08-07,64,Raw,F_MR_5_AIPO,75.15,82.5,45,50,52.5,,52.5,,,,,,52.5,B
1,Nicola Phelan,F,1982-12-10,,Raw,F_OR_IPO,66.7,67.5,65,70,-75,,70,,,,,,70,B
1,Edyta Piechowicz,F,1986-05-29,35,Raw,F_OR_AIPO,64.85,67.5,60,65,-70,,65,,,,,,65,B
2,Paulina Pawlak,F,,32,Raw,F_OR_AIPO,67.5,67.5,55,-60,-60,,55,,,,,,55,B
1,Megan Bowe,F,1997-11-09,24,Raw,F_OR_AIPO,75.9,82.5,42.5,47.5,52.5,,52.5,,,,,,52.5,B
1,Laura O'Shea,F,1983-10-23,38,Raw,F_OR_AIPO,109.5,110,55,60,65,,65,,,,,,65,B
1,Veronica Harvey,F,1988-07-21,33,Raw,F_OR_AIPO,93.45,100,40,45,-47.5,,45,,,,,,45,B
1,Sophie O'Brien,F,2002-11-14,19,Raw,F_TR_3_AIPO,84.1,90,42.5,47.5,50,,50,,,,,,50,B
1,Cheryl O'Neill,F,1980-01-02,42,Single-ply,F_MES_1_AIPO,84.4,90,75,82.5,-87.5,,82.5,,,,,,82.5,B
1,Paulina Coleman,F,1977-07-05,44,Single-ply,F_MES_1_AIPO,90.2,100,110,120,-130,,120,,,,,,120,B
1,Edyta Piechowicz,F,1986-05-29,35,Single-ply,F_OES_AIPO,64.85,67.5,-77.5,77.5,-85,,77.5,,,,,,77.5,B
1,Nicola Phelan,F,1982-12-10,,Single-ply,F_OES_IPO,66.7,67.5,-77.5,77.5,-82.5,,77.5,,,,,,77.5,B
1,Ellen Tobin Hogan,F,1994-03-21,27,Multi-ply,F_OEM_AIPO,57.45,60,60,70,-75,,70,,,,,,70,B
1,Mioara Mara Vizinteanu,F,1977-04-25,44,Raw,F_MR_1_AIPO,79.9,82.5,,,,,,127.5,135,140,,140,140,D
1,Aideen Clarke,F,1978-07-15,43,Raw,F_MR_1_AIPO,125.35,110+,,,,,,125,130,137.5,140,137.5,137.5,D
1,Margaret Fahy,F,1970-09-04,51,Raw,F_MR_3_AIPO,64.4,67.5,,,,,,120,127.5,135,,135,135,D
1,Mary Fusco,F,1957-08-07,64,Raw,F_MR_5_AIPO,75.15,82.5,,,,,,95,100,105,,105,105,D
1,Maria McShane,F,1988-02-28,33,Raw,F_OR_AIPO,55.8,56,,,,,,150,160,165,-170,165,165,D
2,Aoife Monaghan,F,1996-06-18,25,Raw,F_OR_AIPO,55.5,56,,,,,,110,115,120,,120,120,D
1,Caroline Dolan,F,1991-05-26,30,Raw,F_OR_AIPO,60,60,,,,,,150,-160,-160,,150,150,D
1,Edyta Piechowicz,F,1986-05-29,35,Raw,F_OR_AIPO,64.85,67.5,,,,,,140,-150,150,,150,150,D
1,Nicola Phelan,F,1982-12-10,,Raw,F_OR_IPO,66.7,67.5,,,,,,130,135,140,,140,140,D
1,Laura O'Shea,F,1983-10-23,38,Raw,F_OR_AIPO,109.5,110,,,,,,130,142.5,152.5,,152.5,152.5,D
1,Veronica Harvey,F,1988-07-21,33,Raw,F_OR_AIPO,93.45,100,,,,,,95,102.5,107.5,,107.5,107.5,D
1,Sophie O'Brien,F,2002-11-14,19,Raw,F_TR_3_AIPO,84.1,90,,,,,,120,127.5,-132.5,,127.5,127.5,D
1,Ellen Tobin Hogan,F,1994-03-21,27,Single-ply,F_OES_IPO,57.4,60,,,,,,80,100,105,,105,105,D
1,Edyta Piechowicz,F,1986-05-29,35,Single-ply,F_OES_IPO,64.85,67.5,,,,,,160,170,-182.5,,170,170,D
1,Paulina Coleman,F,1977-07-05,44,Multi-ply,F_MEM_1_AIPO,90.2,100,,,,,,200,210,-215,,210,210,D
1,Thomas Kearns Horan,M,1999-02-02,,Raw,M_JR_AIPO,128.85,140,95,105,-110,,105,,,,,,105,B
1,Edward Dee,M,1977-02-15,44,Raw,M_MR_1_AIPO,73.5,75,110,115,-120,,115,,,,,,115,B
1,Daniel O'Neill #1,M,1981-05-13,40,Raw,M_MR_1_AIPO,89.25,90,127.5,135,140,,140,,,,,,140,B
1,Marius Lapėnas,M,1980-09-08,41,Raw,M_MR_1_AIPO,95.55,100,210,220,222.5,-225,222.5,,,,,,222.5,B
1,Barry Sheehan,M,1978-09-08,43,Raw,M_MR_1_AIPO,117.9,125,140,-147.5,150,,150,,,,,,150,B
1,Stephen Rigley,M,1976-06-29,45,Raw,M_MR_2_AIPO,80.5,82.5,127.5,-132.5,132.5,-135,132.5,,,,,,132.5,B
1,Niall O'Keeffe,M,1976-11-20,45,Raw,M_MR_2_AIPO,84.65,90,150,157.5,-162.5,,157.5,,,,,,157.5,B
1,Brendan O'Rourke,M,1976-06-01,45,Raw,M_MR_2_AIPO,95.6,100,132.5,140,,,140,,,,,,140,B
1,Leo McCabe,M,1975-01-01,47,Raw,M_MR_2_IPO,94.9,100,110,120,130,,130,,,,,,130,B
2,PJ Corbett,M,1973-02-24,48,Raw,M_MR_2_IPO,92.2,100,120,127.5,-130,,127.5,,,,,,127.5,B
1,Paudie Phelan,M,1975-02-14,46,Raw,M_MR_2_IPO,134.55,140,135,145,,,145,,,,,,145,B
1,Andrew Scully,M,1970-10-03,51,Raw,M_MR_3_IPO,99.65,100,145,152.5,158,160,158,,,,,,158,B
1,Richard Horan,M,1967-06-09,54,Raw,M_MR_3_IPO,114.95,125,140,150,152.5,155,152.5,,,,,,152.5,B
1,Martin Carroll,M,1971-08-12,50,Raw,M_MR_3_AIPO,169.25,140+,120,130,135,,135,,,,,,135,B
1,Alan Dobbins,M,1963-06-06,58,Raw,M_MR_4_AIPO,84.3,90,125,-132.5,137.5,,137.5,,,,,,137.5,B
1,Bosco Reid,M,1960-06-01,61,Raw,M_MR_5_AIPO,88.15,90,80,85,87.5,,87.5,,,,,,87.5,B
1,Gerry Cronnelly Sr,M,1936-06-07,85,Raw,M_MR_9_AIPO,98.55,100,-65,65,67.5,70,67.5,,,,,,67.5,B
1,Owen Drummond,M,1981-03-06,40,Raw,M_OR_IPO,94.8,100,135,142.5,150,,150,,,,,,150,B
1,Christy Reddan,M,1988-09-18,33,Raw,M_OR_AIPO,98.9,100,125,-127.5,,,125,,,,,,125,B
1,Paul Sayens,M,1992-08-27,29,Raw,M_OR_IPO,114.55,125,150,155,-160,,155,,,,,,155,B
1,Jozef Murarik,M,1990-06-06,31,Raw,M_OR_AIPO,111.8,125,150,-160,-160,,150,,,,,,150,B
1,Scott Holland,M,2009-09-03,12,Raw,M_YR_AIPO,59.2,60,37.5,42.5,45,,45,,,,,,45,B
1,Ben Hogan,M,2007-01-09,15,Raw,M_TR_1_AIPO,117.5,125,50,60,72.5,-75,72.5,,,,,,72.5,B
1,Calum Healy,M,2004-08-17,17,Raw,M_TR_2_AIPO,67.3,67.5,92.5,97.5,102.5,-105,102.5,,,,,,102.5,B
1,Oisin Smith,M,2005-09-30,16,Raw,M_TR_2_AIPO,87,90,87.5,92.5,95,-97.5,95,,,,,,95,B
1,Darragh O'Keeffe,M,2002-12-06,19,Raw,M_TR_3_AIPO,93.8,100,142.5,145,147.5,,147.5,,,,,,147.5,B
1,Graeme Quirke,M,1979-05-30,42,Single-ply,M_MES_1_IPO,88.65,90,-200,200,207.5,,207.5,,,,,,207.5,B
1,Oskars Zvarts,M,1978-08-18,43,Single-ply,M_MES_1_IPO,148.75,140+,260,-270,270,,270,,,,,,270,B
DQ,Stephen Rigley,M,1976-06-29,45,Single-ply,M_MES_2_AIPO,80.5,82.5,-150,-155,-155,,,,,,,,,B
1,Michael Coleman #2,M,1975-10-07,46,Single-ply,M_MES_2_AIPO,97.5,100,150,160,-170,,160,,,,,,160,B
1,Tony O'Rourke,M,1983-10-18,38,Multi-ply,M_OEM_IPO,120.1,125,280,-290,290,-306,290,,,,,,290,B
1,Barry O'Sullivan,M,1983-03-05,38,Multi-ply,M_OEM_AIPO,130,140,227.5,232.5,235,-240,235,,,,,,235,B
1,Thomas Kearns Horan,M,1999-02-02,,Raw,M_JR_AIPO,128.85,140,,,,,,190,202.5,210,,210,210,D
1,Daniel O'Neill #1,M,1981-05-13,40,Raw,M_MR_1_AIPO,89.25,90,,,,,,222.5,235,250,252.5,250,250,D
1,Martin O Mahony,M,1979-11-16,42,Raw,M_MR_1_AIPO,99.8,100,,,,,,265,282.5,-287.5,,282.5,282.5,D
1,Barry Sheehan,M,1978-09-08,43,Raw,M_MR_1_AIPO,117.9,125,,,,,,220,230,235,,235,235,D
1,Darren Mc Creary,M,1976-12-10,45,Raw,M_MR_2_AIPO,89.5,90,,,,,,185,200,212.5,,212.5,212.5,D
2,Niall O'Keeffe,M,1976-11-20,45,Raw,M_MR_2_AIPO,84.65,90,,,,,,200,210,-220,,210,210,D
1,Brendan O'Rourke,M,1976-06-01,45,Raw,M_MR_2_AIPO,95.6,100,,,,,,-220,230,240,,240,240,D
1,Leo McCabe,M,1975-01-01,47,Raw,M_MR_2_IPO,94.9,100,,,,,,220,227.5,232.5,,232.5,232.5,D
2,PJ Corbett,M,1973-02-24,48,Raw,M_MR_2_IPO,92.2,100,,,,,,200,215,225,,225,225,D
1,Paudie Phelan,M,1975-02-14,46,Raw,M_MR_2_IPO,134.55,140,,,,,,205,225,235,,235,235,D
1,Richard Horan,M,1967-06-09,54,Raw,M_MR_3_IPO,114.95,125,,,,,,235,245,250,260,250,250,D
1,Martin Carroll,M,1971-08-12,50,Raw,M_MR_3_AIPO,169.25,140+,,,,,,-170,180,,,180,180,D
1,Bosco Reid,M,1960-06-01,61,Raw,M_MR_5_AIPO,88.15,90,,,,,,140,150,155,,155,155,D
1,Gerry Cronnelly Sr,M,1936-06-07,85,Raw,M_MR_9_AIPO,98.55,100,,,,,,100,107.5,112.5,117.5,112.5,112.5,D
DQ,Megan Bowe,F,1997-11-09,24,Raw,F_OR_AIPO,75.9,82.5,,,,,,-145,-145,-145,,,,D
1,Shane Nugent,M,1990-01-02,32,Raw,M_OR_AIPO,98.35,100,,,,,,250,280,-300,,280,280,D
1,Owen Drummond,M,1981-03-06,40,Raw,M_OR_IPO,94.8,100,,,,,,250,260,265,,265,265,D
1,AJ Cronin,M,1987-10-07,34,Raw,M_OR_IPO,108.85,110,,,,,,280,300,310,,310,310,D
1,Scott Holland,M,2009-09-03,12,Raw,M_YR_AIPO,59.2,60,,,,,,77.5,82.5,87.5,90,87.5,87.5,D
1,Ben Hogan,M,2007-01-09,15,Raw,M_TR_1_AIPO,117.5,125,,,,,,120,132.5,140,,140,140,D
1,Jason Donnelly,M,2004-02-22,17,Raw,M_TR_2_AIPO,56.45,60,,,,,,110,117.5,120,125,120,120,D
1,Calum Healy,M,2004-08-17,17,Raw,M_TR_2_AIPO,67.3,67.5,,,,,,-165,165,172.5,177.5,172.5,172.5,D
2,Jake Coleman,M,2005-11-29,16,Raw,M_TR_2_AIPO,60.2,67.5,,,,,,130,140,-145,,140,140,D
1,Oisin Smith,M,2005-09-30,16,Raw,M_TR_2_AIPO,87,90,,,,,,180,190,195,202.5,195,195,D
1,Luke Thompson #4,M,2004-09-26,17,Raw,M_TR_2_AIPO,98.35,100,,,,,,175,190,200,,200,200,D
1,John McHugh,M,2005-11-08,16,Raw,M_TR_2_AIPO,105.2,110,,,,,,185,200,210,215,210,210,D
1,Darragh O'Keeffe,M,2002-12-06,19,Raw,M_TR_3_AIPO,93.8,100,,,,,,270,280,285,-290,285,285,D
1,Bosco Reid,M,1960-06-01,61,Single-ply,M_MES_5_AIPO,88.15,90,,,,,,150,162.5,170,,170,170,D
1,Liam Beville,M,1965-04-20,56,Multi-ply,M_MEM_4_IPO,86.3,90,,,,,,265,275,285,-292.5,285,285,D
