Place,Sex,Name,Event,Division,WeightClassKg,Equipment,State,BodyweightKg,Squat1Kg,Squat2Kg,Squat3Kg,Best3SquatKg,Bench1Kg,Bench2Kg,Bench3Kg,Best3BenchKg,Deadlift1Kg,Deadlift2Kg,Deadlift3Kg,Best3DeadliftKg,TotalKg,BirthYear
1,M,Troy Barron,B,MR-M1,74,Raw,SC,73.7,,,,,117.5,-120,-120,117.5,,,,,117.5,1966
1,M,Royce Young,B,MR-M1,105,Raw,NC,102.4,,,,,160,-162.5,-162.5,160,,,,,160,1970
1,M,Johnny Milhouse,B,MR-M1,120,Raw,SC,105.5,,,,,205,212.5,227.5,227.5,,,,,227.5,1969
2,M,Kenny Blackmon,B,MR-M1,120,Raw,SC,113.1,,,,,195,205,-210,205,,,,,205,1970
1,M,Jermaine Thomas,B,MR-M1,120+,Raw,SC,137.7,,,,,195,-205,-205,195,,,,,195,1973
1,M,Adam Yezer,B,MR-M2,83,Raw,NC,81.9,,,,,127.5,132.5,-140,132.5,,,,,132.5,1965
1,M,Michael Price,B,MR-M2,120+,Raw,SC,177.4,,,,,202.5,212.5,-215,212.5,,,,,212.5,1979
1,M,Michael Cantrell,B,MR-M3,105,Raw,SC,103.4,,,,,135,142.5,145,145,,,,,145,1952
1,M,Scottie Duncan,B,MR-O,74,Raw,SC,72.8,,,,,130,-140,-140,130,,,,,130,1993
1,M,Orlando McGriff,B,MR-O,93,Raw,SC,91.7,,,,,-177.5,177.5,185,185,,,,,185,1989
1,M,Zachary Green,B,MR-O,105,Raw,SC,104.9,,,,,195,205,-207.5,205,,,,,205,1997
2,M,Maurice Jones,B,MR-O,105,Raw,SC,93.2,,,,,147.5,150,155,155,,,,,155,1982
3,M,Michael Cantrell,B,MR-O,105,Raw,SC,103.4,,,,,135,142.5,145,145,,,,,145,1952
1,M,Kenny Blackmon,B,MR-O,120,Raw,SC,113.1,,,,,195,205,-210,205,,,,,205,1970
2,M,Ethan McElroy,B,MR-O,120,Raw,SC,118.8,,,,,125,-137.5,-137.5,125,,,,,125,1993
1,M,Justin Shepherd,B,MR-O,120+,Raw,SC,167.3,,,,,237.5,250,-255,250,,,,,250,1978
2,M,Michael Price,B,MR-O,120+,Raw,SC,177.4,,,,,202.5,212.5,-215,212.5,,,,,212.5,1979
1,F,Kelly Brown #2,B,FR-M1,63,Raw,SC,59.6,,,,,62.5,-65,-65,62.5,,,,,62.5,1991
1,F,Tracy Cook,B,FR-M1,84,Raw,NC,77,,,,,62.5,67.5,72.5,72.5,,,,,72.5,1970
1,F,Amy Stevens,B,FR-M1,84+,Raw,SC,97.5,,,,,67.5,-72.5,72.5,72.5,,,,,72.5,1972
1,F,Mary Lou Hill,B,FR-M3,72,Raw,SC,71.8,,,,,35,37.5,40,40,,,,,40,1948
1,F,Jerri Lamar,B,FR-O,57,Raw,NC,56.7,,,,,50,52.5,-55,52.5,,,,,52.5,1989
1,F,Kelly Brown #2,B,FR-O,63,Raw,SC,59.6,,,,,62.5,-65,-65,62.5,,,,,62.5,1991
1,F,Dorothy Elison,B,FR-O,84,Raw,SC,82.1,,,,,67.5,75,-82.5,75,,,,,75,1980
2,F,Tracy Cook,B,FR-O,84,Raw,NC,77,,,,,62.5,67.5,72.5,72.5,,,,,72.5,1970
3,F,Rachelle Courtney,B,FR-O,84,Raw,NC,83.9,,,,,62.5,65,-70,65,,,,,65,1992
4,F,Leigha Adams,B,FR-O,84,Raw,SC,82.5,,,,,52.5,-60,60,60,,,,,60,1988
1,F,Amy Stevens,B,FR-O,84+,Raw,SC,97.5,,,,,67.5,-72.5,72.5,72.5,,,,,72.5,1972
1,M,Travis Pardue,SBD,MR-M1,83,Raw,NC,82.2,185,195,-207.5,195,-115,122.5,-127.5,122.5,227.5,250,-265,250,567.5,1971
1,M,Royce Young,SBD,MR-M1,105,Raw,NC,102.4,170,-175,175,175,160,-162.5,-162.5,160,235,242.5,245,245,580,1970
1,M,Billy Tabor,SBD,MR-M2,83,Raw,SC,82,167.5,180,-185,180,120,127.5,130,130,212.5,227.5,230,230,540,1964
2,M,Adam Yezer,SBD,MR-M2,83,Raw,NC,81.9,102.5,-122.5,122.5,122.5,127.5,132.5,-140,132.5,165,175,187.5,187.5,442.5,1965
1,M,Tom Kerrigan,SBD,MR-M3,120,Raw,SC,107.6,125,137.5,-145,137.5,100,105,110,110,-125,135,155,155,402.5,1949
1,M,Scottie Duncan,SBD,MR-O,74,Raw,SC,72.8,175,-190,190,190,130,-140,-140,130,195,210,215,215,535,1993
2,M,Joshua Branham,SBD,MR-O,74,Raw,SC,72.3,145,152.5,160,160,107.5,-112.5,-117.5,107.5,185,205,210,210,477.5,1992
3,M,Ross Bowman,SBD,MR-O,74,Raw,SC,73,152.5,162.5,170,170,100,105,-110,105,177.5,187.5,197.5,197.5,472.5,1991
1,M,Jake Howerin,SBD,MR-O,83,Raw,SC,80.4,225,-235,-235,225,142.5,-147.5,-147.5,142.5,-225,225,242.5,242.5,610,1996
2,M,Bradley Robinson,SBD,MR-O,83,Raw,SC,82.2,175,187.5,200,200,155,167.5,-175,167.5,220,227.5,-245,227.5,595,1985
3,M,Stephen Irwin,SBD,MR-O,83,Raw,SC,81,200,210,-215,210,135,142.5,-150,142.5,220,235,-240,235,587.5,1992
4,M,Travis Pardue,SBD,MR-O,83,Raw,NC,82.2,185,195,-207.5,195,-115,122.5,-127.5,122.5,227.5,250,-265,250,567.5,1971
5,M,David Thompson #7,SBD,MR-O,83,Raw,SC,80.3,180,182.5,-187.5,182.5,125,-135,-135,125,185,192.5,200,200,507.5,1983
6,M,Jan Enabore,SBD,MR-O,83,Raw,SC,77.3,145,150,155,155,112.5,115,-117.5,115,180,187.5,195,195,465,1992
7,M,Nicholas Rivers,SBD,MR-O,83,Raw,SC,79,160,165,-172.5,165,97.5,102.5,105,105,182.5,185,190,190,460,1993
1,M,Orlando McGriff,SBD,MR-O,93,Raw,SC,91.7,232.5,245,-250,245,-177.5,177.5,185,185,240,-257.5,,240,670,1989
2,M,Ethan Bradham,SBD,MR-O,93,Raw,SC,91.6,220,-235,-235,220,137.5,147.5,-155,147.5,252.5,-277.5,-277.5,252.5,620,1994
3,M,Shawn Watts #1,SBD,MR-O,93,Raw,SC,93,197.5,210,220,220,135,145,152.5,152.5,207.5,217.5,235,235,607.5,1989
4,M,Matt Reece,SBD,MR-O,93,Raw,SC,92.5,-182.5,182.5,187.5,187.5,115,-120,-120,115,205,217.5,-227.5,217.5,520,1996
5,M,Kalen Alexander,SBD,MR-O,93,Raw,SC,83.3,152.5,162.5,-177.5,162.5,112.5,120,-127.5,120,170,182.5,-197.5,182.5,465,1992
6,M,Brad Randall,SBD,MR-O,93,Raw,SC,84,135,142.5,152.5,152.5,85,95,-97.5,95,152.5,162.5,172.5,172.5,420,1987
1,M,Ethan McElroy,SBD,MR-O,120,Raw,SC,118.8,157.5,-172.5,172.5,172.5,125,-137.5,-137.5,125,207.5,227.5,-235,227.5,525,1993
1,M,Justin Shepherd,SBD,MR-O,120+,Raw,SC,167.3,290,310,-317.5,310,237.5,250,-255,250,282.5,295,-302.5,295,855,1978
1,M,Jake Howerin,SBD,MR-T3,83,Raw,SC,80.4,225,-235,-235,225,142.5,-147.5,-147.5,142.5,-225,225,242.5,242.5,610,1996
1,F,Kelly Brown #2,SBD,FR-M1,63,Raw,SC,59.6,92.5,95,97.5,97.5,62.5,-65,-65,62.5,102.5,,,102.5,262.5,1991
1,F,Kelly Tabor,SBD,FR-M1,72,Raw,SC,70.2,100,107.5,112.5,112.5,45,50,-52.5,50,115,125,-137.5,125,287.5,1970
1,F,Tracy Cook,SBD,FR-M1,84,Raw,NC,77,105,112.5,120,120,62.5,67.5,72.5,72.5,137.5,147.5,157.5,157.5,350,1970
1,F,Amy Stevens,SBD,FR-M1,84+,Raw,SC,97.5,97.5,102.5,107.5,107.5,67.5,-72.5,72.5,72.5,110,115,122.5,122.5,302.5,1972
1,F,Mary Lou Hill,SBD,FR-M3,72,Raw,SC,71.8,-30,30,35,35,35,37.5,40,40,52.5,57.5,70,70,145,1948
1,F,Kaitlin Kramer,SBD,FR-O,57,Raw,SC,57,107.5,110,115,115,62.5,65,-67.5,65,137.5,-140,-140,137.5,317.5,1991
2,F,Jerri Lamar,SBD,FR-O,57,Raw,NC,56.7,95,97.5,-100,97.5,50,52.5,-55,52.5,110,120,122.5,122.5,272.5,1989
1,F,Lauren Rutan,SBD,FR-O,63,Raw,SC,59.7,142.5,-150,-150,142.5,82.5,85,87.5,87.5,145,152.5,-160,152.5,382.5,1984
2,F,Valerie Sinkler,SBD,FR-O,63,Raw,SC,62.8,92.5,100,107.5,107.5,67.5,70,72.5,72.5,135,145,155,155,335,1979
3,F,Kelly Brown #2,SBD,FR-O,63,Raw,SC,59.6,92.5,95,97.5,97.5,62.5,-65,-65,62.5,102.5,,,102.5,262.5,1991
1,F,Melanie Henderson,SBD,FR-O,72,Raw,SC,70.7,125,132.5,145,145,77.5,85,-87.5,85,170,185,192.5,192.5,422.5,1991
2,F,Bergen Jorgenson,SBD,FR-O,72,Raw,SC,65.1,92.5,97.5,100,100,57.5,60,-62.5,60,115,120,125,125,285,1991
3,F,Miriam McCune,SBD,FR-O,72,Raw,SC,69,55,-60,65,65,-55,55,-62.5,55,122.5,132.5,140,140,260,1985
1,F,Jasmine McLaurin,SBD,FR-O,84,Raw,SC,78.3,-82.5,95,107.5,107.5,70,80,-92.5,80,157.5,175,185,185,372.5,1991
2,F,Tracy Cook,SBD,FR-O,84,Raw,NC,77,105,112.5,120,120,62.5,67.5,72.5,72.5,137.5,147.5,157.5,157.5,350,1970
3,F,Leigha Adams,SBD,FR-O,84,Raw,SC,82.5,100,110,-115,110,52.5,-60,60,60,142.5,155,-160,155,325,1988
4,F,Laura Magruder,SBD,FR-O,84,Raw,NC,74.2,122.5,135,-140,135,45,-50,-50,45,112.5,120,130,130,310,1991
5,F,Coley Kaeser,SBD,FR-O,84,Raw,SC,79.5,125,130,-135,130,42.5,-47.5,-47.5,42.5,130,-137.5,137.5,137.5,310,1990
6,F,Dorothy Elison,SBD,FR-O,84,Raw,SC,82.1,82.5,90,105,105,67.5,75,-82.5,75,102.5,107.5,115,115,295,1980
7,F,Mariah Krzemien,SBD,FR-O,84,Raw,SC,75.8,92.5,100,-105,100,-47.5,52.5,-57.5,52.5,-127.5,127.5,-140,127.5,280,1991
8,F,Rachelle Courtney,SBD,FR-O,84,Raw,NC,83.9,77.5,85,92.5,92.5,62.5,65,-70,65,102.5,115,-125,115,272.5,1992
1,F,Amy Stevens,SBD,FR-O,84+,Raw,SC,97.5,97.5,102.5,107.5,107.5,67.5,-72.5,72.5,72.5,110,115,122.5,122.5,302.5,1972
